<svg id="Path_2222" data-name="Path 2222" xmlns="http://www.w3.org/2000/svg" width="17.08" height="17.08" viewBox="0 0 17.08 17.08">
  <g id="Path_2222-2" data-name="Path 2222" transform="translate(0 17.08) rotate(-90)">
    <path id="Subtraction_15" data-name="Subtraction 15" d="M8.54,17.08A8.351,8.351,0,0,1,5.229,16.4,8.438,8.438,0,0,1,.677,11.85a8.436,8.436,0,0,1,0-6.621A8.7,8.7,0,0,1,2.5,2.5,8.668,8.668,0,0,1,5.229.678,8.329,8.329,0,0,1,8.54,0a8.526,8.526,0,0,1,3.637.806,8.372,8.372,0,0,1,2.846,2.168l-1.4,1.41a6.537,6.537,0,0,0-7.634-1.9,6.521,6.521,0,0,0-3.5,3.5,6.521,6.521,0,0,0,0,5.105,6.51,6.51,0,0,0,3.5,3.5,6.556,6.556,0,0,0,7.033-1.238l.4-.374-.388-.389-1.63-1.629,0,0c-.092-.09-.094-.127-.052-.226l0,0c.058-.137.108-.151.21-.151h5.29a.2.2,0,0,1,.157.07.2.2,0,0,1,.069.157V16.1a.185.185,0,0,1-.138.21.333.333,0,0,1-.118.029c-.017,0-.05,0-.115-.069l-.007-.006-.007-.008L15.16,14.731,14.8,14.37l-.372.352A8.681,8.681,0,0,1,11.7,16.464,8.428,8.428,0,0,1,8.54,17.08Z" transform="translate(0)" fill="#594fc2"/>
  </g>
</svg>
