<svg xmlns="http://www.w3.org/2000/svg" width="21.516" height="23" viewBox="0 0 21.516 23">
  <g id="commerce-and-shopping" transform="translate(-73.1 -98.8)">
    <path id="Path_3296" data-name="Path 3296" d="M93.56,102.677H81V99.5a.7.7,0,0,0-.711-.7H73.811a.7.7,0,0,0-.711.7v2.147a1.047,1.047,0,0,0,1.059,1.035h1.77l.208,1.874.891,9.525a1.051,1.051,0,0,0,1.053.94H92.593a1.047,1.047,0,0,0,1.053-.94l.97-10.365A1.044,1.044,0,0,0,93.56,102.677Z" fill="#ffffff"/>
    <path id="Path_3297" data-name="Path 3297" d="M614.7,751.656a2.513,2.513,0,1,0,2.513-2.456A2.485,2.485,0,0,0,614.7,751.656Z" transform="translate(-526.188 -632.311)" fill="#ffffff"/>
    <path id="Path_3298" data-name="Path 3298" d="M245.4,751.656a2.513,2.513,0,1,0,2.513-2.456A2.485,2.485,0,0,0,245.4,751.656Z" transform="translate(-167.397 -632.311)" fill="#ffffff"/>
  </g>
</svg>
