<svg xmlns="http://www.w3.org/2000/svg" width="28" height="28" viewBox="0 0 28 28">
  <g id="Vietnamese" transform="translate(0.311 0.048)">
    <circle id="Ellipse_95" data-name="Ellipse 95" cx="14" cy="14" r="14" transform="translate(-0.311 -0.048)" fill="#d80027"/>
    <path id="Path_2762" data-name="Path 2762" d="M145.346,133.565l1.506,4.634h4.872l-3.942,2.864,1.506,4.634-3.942-2.864L141.4,145.7l1.506-4.634-3.942-2.864h4.872Z" transform="translate(-131.652 -126.184)" fill="#ffda44"/>
  </g>
</svg>
